<svg xmlns="http://www.w3.org/2000/svg" width="120.584" height="118.851" viewBox="0 0 120.584 118.851">
  <g id="Group_3722" data-name="Group 3722" transform="translate(-757.101 -2987.454)">
    <g id="Group_3478" data-name="Group 3478" transform="translate(653.971 2961.68)">
      <path id="Path_435" data-name="Path 435" d="M175.371,59.224,160.908,44.434a1.789,1.789,0,0,0-1.278-.541h-26.8c-2.991,0-3.932.547-3.932,3.606v53.956A5.49,5.49,0,0,0,134.32,107h36.158a5.49,5.49,0,0,0,5.423-5.545V60.533A1.888,1.888,0,0,0,175.371,59.224Z" transform="translate(16.715 11.754)" fill="#e6e7e8"/>
      <path id="Path_436" data-name="Path 436" d="M160.185,61.608H132.871a2.347,2.347,0,0,0,0,4.692h27.314a2.347,2.347,0,0,0,0-4.692Z" transform="translate(17.816 23.246)" fill="#fff"/>
      <g id="Group_3478-2" data-name="Group 3478" transform="translate(137.812 47.794)">
        <path id="Path_437" data-name="Path 437" d="M178.351,56.61,161.49,39.748A2.109,2.109,0,0,0,160,39.13h-29.51a6.332,6.332,0,0,0-6.323,6.324v59.3a6.331,6.331,0,0,0,6.323,6.324h42.158a6.331,6.331,0,0,0,6.323-6.324V58.1A2.127,2.127,0,0,0,178.351,56.61ZM162.108,46.328l9.665,9.666h-7.558a2.11,2.11,0,0,1-2.107-2.109Zm10.539,60.534H130.489a2.109,2.109,0,0,1-2.107-2.107v-59.3a2.11,2.11,0,0,1,2.107-2.109h27.4v10.54a6.331,6.331,0,0,0,6.324,6.323h10.54v44.547A2.11,2.11,0,0,1,172.646,106.862Z" transform="translate(-124.166 -39.13)" fill="#001372"/>
      </g>
      <g id="Group_3479" data-name="Group 3479" transform="translate(103.131 25.774)">
        <path id="Path_438" data-name="Path 438" d="M127.028,53.344a2.856,2.856,0,0,0-3.55-3.9l-10.407,3.743L108.5,44.566a2.856,2.856,0,0,0-5.025,2.715l6.859,12.959.071-.03,15.008-5.4A2.834,2.834,0,0,0,127.028,53.344Z" transform="translate(-103.131 -14.555)" fill="#ff6700"/>
        <path id="Path_439" data-name="Path 439" d="M216.182,68.678l.015-.013-.839-2.8C208.54,43.816,189.2,28.236,165.566,26c-1.614-.152-3.259-.231-4.888-.231-21.179,0-41.038,12.524-50.6,31.9-.224.452-.483.889-.795,1.41l-1.34,2.3.851,4.295,4.768-2.562.89-2.236a7.611,7.611,0,0,1,.345-.813c9.625-18.461,24.828-28.165,45.188-28.847.577-.02,1.152-.028,1.728-.028,22.535,0,41.979,14.682,48.8,36.634l.546,1.909c0,.018.012.036.017.056l.092.323.01,0a2.613,2.613,0,0,0,5.009-1.441Z" transform="translate(-100.008 -25.774)" fill="#ff6700"/>
      </g>
      <g id="Group_3480" data-name="Group 3480" transform="translate(107.485 98.568)">
        <path id="Path_440" data-name="Path 440" d="M161.883,77.048a2.854,2.854,0,0,0,3.55,3.9l10.407-3.741,4.574,8.615a2.856,2.856,0,0,0,5.025-2.714l-6.86-12.961-.069.03-15.008,5.4A2.84,2.84,0,0,0,161.883,77.048Z" transform="translate(-69.55 -69.78)" fill="#0f1a6f"/>
        <path id="Path_441" data-name="Path 441" d="M105.828,73.078l-.017.015.841,2.8c6.816,22.045,26.155,37.627,49.789,39.858,1.616.152,3.26.229,4.89.229,21.178,0,41.038-12.522,50.6-31.9.224-.452.483-.889.795-1.408l1.34-2.3-.851-4.3-4.768,2.562-.89,2.236a7.8,7.8,0,0,1-.345.813c-9.625,18.461-24.828,28.165-45.188,28.848q-.866.03-1.728.03c-22.533,0-41.981-14.683-48.8-36.636l-.547-1.909a.332.332,0,0,0-.015-.054l-.092-.325-.01,0a2.613,2.613,0,0,0-5.009,1.441Z" transform="translate(-105.772 -69.926)" fill="#0f1a6f"/>
      </g>
      <path id="Path_442" data-name="Path 442" d="M151.36,67.854H132.9a2.307,2.307,0,1,0,0,4.613H151.36a2.307,2.307,0,1,0,0-4.613Z" transform="translate(17.816 27.298)" fill="#fff"/>
      <path id="Path_443" data-name="Path 443" d="M160.185,55.777H132.871a2.347,2.347,0,0,0,0,4.692h27.314a2.347,2.347,0,0,0,0-4.692Z" transform="translate(17.816 19.463)" fill="#fff"/>
      <path id="Path_444" data-name="Path 444" d="M159.239,57.2H133.945a2.108,2.108,0,1,0,0,4.216h25.295a2.108,2.108,0,0,0,0-4.216Z" transform="translate(18.621 20.386)" fill="#0f1a6f"/>
      <path id="Path_445" data-name="Path 445" d="M159.239,63.031H133.945a2.108,2.108,0,1,0,0,4.216h25.295a2.108,2.108,0,0,0,0-4.216Z" transform="translate(18.621 24.169)" fill="#001372"/>
      <path id="Path_446" data-name="Path 446" d="M150.808,68.647H133.945a2.108,2.108,0,1,0,0,4.216h16.863a2.108,2.108,0,0,0,0-4.216Z" transform="translate(18.621 27.812)" fill="#001372"/>
    </g>
  </g>
</svg>
