<svg xmlns="http://www.w3.org/2000/svg" width="70.565" height="66.784" viewBox="0 0 70.565 66.784">
  <g id="Group_3589" data-name="Group 3589" transform="translate(-979.27 -198.438)">
    <g id="Group_3304" data-name="Group 3304" transform="translate(979.27 198.439)">
      <path id="Path_317" data-name="Path 317" d="M1011.785,228c-.028.03-.075.028-.089.056l8.437,26.07a4.221,4.221,0,0,0,5.422,2.6,4.352,4.352,0,0,0,2.532-5.535l-9.354-28.668Z" transform="translate(-968.165 -190.192)" fill="#ff6700"/>
      <path id="Path_318" data-name="Path 318" d="M1011.876,231.176c-.024-.015-.052-.051-.079-.07L990.828,245.6a4.115,4.115,0,0,0,5.245,6.342l22.984-16.164Z" transform="translate(-975.821 -187.252)" fill="#ff6700"/>
      <path id="Path_319" data-name="Path 319" d="M1004.451,226.653a.713.713,0,0,0,.107.016l8.985-23.112a4,4,0,0,0-7.682-2.242l-9.551,26.011Z" transform="translate(-973.434 -198.438)" fill="#ff6700"/>
      <path id="Path_320" data-name="Path 320" d="M1010.248,221.843c.012.039.161.576.176.608l25.6-.511a4.148,4.148,0,0,0,4.1-3.967,3.815,3.815,0,0,0-4.017-3.76l-28.5.115Z" transform="translate(-969.563 -193.037)" fill="#ff6700"/>
      <path id="Path_321" data-name="Path 321" d="M1007.292,230.238a.843.843,0,0,1,.048-.1L985.585,215.6a4.116,4.116,0,1,0-4.4,6.959l23.973,15.932Z" transform="translate(-979.27 -192.778)" fill="#ff6700"/>
    </g>
  </g>
</svg>
