<svg xmlns="http://www.w3.org/2000/svg" width="250" height="248.724" viewBox="0 0 250 248.724">
  <g id="Group_3577" data-name="Group 3577" transform="translate(-526.103 -79.065)">
    <g id="Group_3558" data-name="Group 3558" transform="translate(680.214 129.614)">
      <g id="Group_3557" data-name="Group 3557">
        <path id="Path_586" data-name="Path 586" d="M579.339,254.232v38.656L620.1,291.1l-1.515-24.208c.026-4.06,8.723-12.5,11.8-15.268l33.2-30.786c4.693-4.552,3.808-8.685,3.79-15.11l1.266-86.993c-.009-8.533,5-20.82-3.793-21.687-9.473-.935-7.937,12.95-8.9,22.1l-6.39,60.909a16.318,16.318,0,0,0-8.093,4.192l-50.966,45.816A32.568,32.568,0,0,0,579.339,254.232Z" transform="translate(-579.339 -97.006)" fill="#eaebf7"/>
      </g>
    </g>
    <g id="Group_3558-2" data-name="Group 3558" transform="translate(529.257 129.675)">
      <g id="Group_3557-2" data-name="Group 3557">
        <path id="Path_586-2" data-name="Path 586" d="M607.4,230.086l-50.97-45.817a16.288,16.288,0,0,0-8.093-4.189l-6.387-60.912c-.97-9.148.569-23.036-8.9-22.1-8.793.868-3.784,13.152-3.793,21.687l1.263,86.993c-.018,6.422-.9,10.558,3.793,15.107l33.2,30.786c3.072,2.773,11.771,11.209,11.8,15.271l-1.518,24.205,40.76,1.788V254.251A32.574,32.574,0,0,0,607.4,230.086Z" transform="translate(-527.838 -97.027)" fill="#eaebf7"/>
      </g>
    </g>
    <g id="Group_3554" data-name="Group 3554" transform="translate(607.315 121.72)">
      <g id="Group_3553" data-name="Group 3553">
        <path id="Path_584" data-name="Path 584" d="M650.541,100.241c-10.552-9.67-31.524-7.864-47.883,8.04-16.332-15.89-29.244-15.116-39.8-5.458-11.988,10.962-10.578,28.209.695,39.866q.317.325.642.642l43.665,45.488,45.655-44.395a28.411,28.411,0,0,0-.017-40.977C653.29,103.239,650.764,100.443,650.541,100.241Z" transform="translate(-554.468 -94.313)" fill="#eaebf7"/>
      </g>
    </g>
    <path id="Path_346" data-name="Path 346" d="M564.306,101.054a2.452,2.452,0,0,0,1.847-2.931l-3.649-16.1a2.448,2.448,0,0,0-4.775,1.085l3.649,16.1A2.449,2.449,0,0,0,564.306,101.054Z" transform="translate(59.023 0)" fill="#ff6700" stroke="#ff6700" stroke-width="2"/>
    <path id="Path_347" data-name="Path 347" d="M552.7,104.262a2.449,2.449,0,0,0,3.462-3.465h0L544.493,89.125a2.45,2.45,0,0,0-3.464,3.465Z" transform="translate(25.507 16.006)" fill="#ff6700" stroke="#ff6700" stroke-width="2"/>
    <path id="Path_346-2" data-name="Path 346" d="M581.8,101.428a2.449,2.449,0,0,1-2.017-2.814l2.682-16.285a2.448,2.448,0,0,1,4.831.794l-2.682,16.288A2.448,2.448,0,0,1,581.8,101.428Z" transform="translate(101.664 0.306)" fill="#ff6700" stroke="#ff6700" stroke-width="2"/>
    <path id="Path_347-2" data-name="Path 347" d="M597.3,103.538a2.448,2.448,0,0,1-3.462-3.462h0L605.509,88.4a2.45,2.45,0,0,1,3.464,3.465Z" transform="translate(127.488 14.608)" fill="#ff6700" stroke="#ff6700" stroke-width="2"/>
    <path id="Path_598" data-name="Path 598" d="M577.408,98.344a23.476,23.476,0,0,1,23.357,23.592" transform="translate(101.806 34.618)" fill="none" stroke="#0f1a6f" stroke-linecap="round" stroke-miterlimit="10" stroke-width="6"/>
    <path id="Path_599" data-name="Path 599" d="M665.5,149.358a33.248,33.248,0,0,0-.02-46.968l-.733-.709c-11.669-10.992-31.8-13.709-50.492,4.971l-2.072,2.072-2.073-2.072c-9.7-9.7-19.788-13.636-28.883-13.636a31.456,31.456,0,0,0-21.608,8.659,33.211,33.211,0,0,0-1.451,46.948l.718.742,53.306,53.3Zm-103.885-2.72a29.368,29.368,0,0,1-.029-41.478l.683-.66a28.169,28.169,0,0,1,19.293-7.612c.091,0,.182,0,.278,0,13.495,0,20.679,7.366,29,15.9q.664.682,1.346,1.375c.481-.489.952-.979,1.421-1.46,8.245-8.486,15.368-15.811,28.954-15.811a27.845,27.845,0,0,1,19.533,7.583,29.363,29.363,0,0,1,1.334,41.464c-.223.234-.445.466-.674.695l-50.565,50.577Z" transform="translate(42.578 24.904)" fill="#ff6700" stroke="#ff6700" stroke-miterlimit="10" stroke-width="3"/>
    <path id="Path_600" data-name="Path 600" d="M527.1,110.5v96.95a21.83,21.83,0,0,0,6.4,15.561l36.918,37.258a16.927,16.927,0,0,1,5.314,12.22v23.455H629.7V243.663a30.877,30.877,0,0,0-10.03-22.5l-49.146-45.749a13.419,13.419,0,0,0-6.747-3.637l-1.583-.325-6.317-62.41A14.423,14.423,0,0,0,527.1,110.5Zm5.329,0a9.1,9.1,0,0,1,18.147-.953l6.3,62.336-1.492.633a13.839,13.839,0,0,0-4.382,22.546l36.42,33.031,3.579-3.942-36.317-32.937a8.352,8.352,0,0,1-2.418-5.962,8.527,8.527,0,0,1,14.527-6.029l49.255,45.869a25.461,25.461,0,0,1,8.315,18.592v46.93h-43.3V272.5a22.289,22.289,0,0,0-6.92-16.03l-.018-.018L537.3,219.29a16.629,16.629,0,0,1-4.871-11.833Z" transform="translate(0 30.844)" fill="#0f1a6f" stroke="#0f1a6f" stroke-width="2"/>
    <path id="Path_601" data-name="Path 601" d="M666.352,95.877a14.426,14.426,0,0,0-15.816,12.879l-6.32,62.41-1.583.322a13.4,13.4,0,0,0-6.745,3.64l-49.146,45.749a30.89,30.89,0,0,0-10.033,22.5v52.283h53.962V272.2a16.929,16.929,0,0,1,5.317-12.22l36.917-37.261a21.817,21.817,0,0,0,6.4-15.558v-96.95A14.389,14.389,0,0,0,666.352,95.877Zm7.627,111.292A16.631,16.631,0,0,1,669.107,219l-36.83,37.167-.018.015a22.3,22.3,0,0,0-6.917,16.033v18.109h-43.3V243.4a25.457,25.457,0,0,1,8.312-18.592l49.255-45.872a8.605,8.605,0,0,1,12.02.021,8.515,8.515,0,0,1,2.506,6.012,8.339,8.339,0,0,1-2.415,5.962L615.4,223.862l3.582,3.942L655.4,194.773a13.839,13.839,0,0,0-4.382-22.546l-1.492-.633,6.3-62.339a9.1,9.1,0,0,1,18.149.956Z" transform="translate(95.796 30.288)" fill="#0f1a6f" stroke="#0f1a6f" stroke-width="2"/>
  </g>
</svg>
