<svg xmlns="http://www.w3.org/2000/svg" width="38.421" height="50.673" viewBox="0 0 38.421 50.673">
  <g id="Group_3741" data-name="Group 3741" transform="translate(-340.282 -3185.495)">
    <g id="_411779" data-name="411779" transform="translate(278.384 3185.495)">
      <g id="Group_3530" data-name="Group 3530" transform="translate(66.647 4.759)">
        <g id="Group_3529" data-name="Group 3529" transform="translate(0)">
          <path id="Path_559" data-name="Path 559" d="M130.808,49.637a14.43,14.43,0,0,0-17.9,21.729.8.8,0,0,0,1.26-.981,12.833,12.833,0,0,1,15.922-19.323.8.8,0,1,0,.72-1.425Z" transform="translate(-109.878 -48.082)" fill="#fff"/>
        </g>
      </g>
      <g id="Group_3532" data-name="Group 3532" transform="translate(71.915 12.253)">
        <g id="Group_3531" data-name="Group 3531" transform="translate(0)">
          <path id="Path_560" data-name="Path 560" d="M185.147,124.245a.8.8,0,0,0-1.426.72,12.833,12.833,0,0,1-19.324,15.92.8.8,0,1,0-.981,1.26,14.43,14.43,0,0,0,21.73-17.9Z" transform="translate(-163.109 -123.806)" fill="#fff"/>
        </g>
      </g>
      <g id="Group_3534" data-name="Group 3534" transform="translate(89.288 8.175)">
        <g id="Group_3533" data-name="Group 3533">
          <path id="Path_561" data-name="Path 561" d="M341.249,84.08c-.2-.224-.406-.445-.618-.657s-.433-.42-.657-.618a.8.8,0,0,0-1.058,1.2c.2.176.4.361.585.55s.374.386.551.585a.8.8,0,0,0,1.2-1.058Z" transform="translate(-338.647 -82.605)" fill="#fff"/>
        </g>
      </g>
      <g id="Group_3536" data-name="Group 3536" transform="translate(61.898 0)">
        <g id="Group_3535" data-name="Group 3535" transform="translate(0 0)">
          <path id="Path_562" data-name="Path 562" d="M99.919,20.626a2.71,2.71,0,0,0,0-2.832l-1.051-1.723a1.124,1.124,0,0,1-.151-.759l.313-1.99A2.709,2.709,0,0,0,97.944,10.7L96.316,9.516a1.124,1.124,0,0,1-.431-.644l-.474-1.96a2.709,2.709,0,0,0-2-2l-1.96-.474A1.124,1.124,0,0,1,90.8,4L89.619,2.375A2.708,2.708,0,0,0,87,1.288l-1.99.313a1.124,1.124,0,0,1-.759-.151L82.525.4a2.71,2.71,0,0,0-2.832,0L77.97,1.45a1.124,1.124,0,0,1-.759.151l-1.99-.313A2.709,2.709,0,0,0,72.6,2.374L71.414,4a1.124,1.124,0,0,1-.644.431l-1.96.474a2.709,2.709,0,0,0-2,2l-.474,1.96a1.123,1.123,0,0,1-.431.644L64.273,10.7a2.708,2.708,0,0,0-1.087,2.622l.313,1.99a1.124,1.124,0,0,1-.151.759L62.3,17.794a2.71,2.71,0,0,0,0,2.832l1.051,1.723a1.124,1.124,0,0,1,.151.759l-.313,1.99a2.709,2.709,0,0,0,1.087,2.623L65.9,28.9a1.124,1.124,0,0,1,.431.644l.474,1.96a2.709,2.709,0,0,0,2,2l.818.2L64.09,46.063a.8.8,0,0,0,.823,1.12l4.456-.533,2.567,3.681a.8.8,0,0,0,.655.342c.025,0,.05,0,.075,0a.8.8,0,0,0,.654-.468l5.656-12.617.717.437a2.71,2.71,0,0,0,2.832,0l.742-.453L88.93,50.2a.8.8,0,0,0,.654.468c.025,0,.05,0,.075,0a.8.8,0,0,0,.655-.342L92.88,46.65l4.456.533a.8.8,0,0,0,.823-1.12L92.619,33.7l.787-.191a2.709,2.709,0,0,0,2-2l.474-1.96a1.124,1.124,0,0,1,.431-.644l1.629-1.184A2.709,2.709,0,0,0,99.031,25.1l-.313-1.99a1.124,1.124,0,0,1,.151-.759ZM72.439,48.261l-2.034-2.917a.8.8,0,0,0-.75-.336l-3.531.422L71.17,34.174a1.117,1.117,0,0,1,.243.243L72.6,36.046a2.745,2.745,0,0,0,.377.42L70.318,42.39a.8.8,0,1,0,1.457.653l2.646-5.9a2.733,2.733,0,0,0,.8-.007l1.99-.313a1.121,1.121,0,0,1,.357,0Zm23.686-2.831-3.531-.422a.8.8,0,0,0-.75.336L89.81,48.261l-5.13-11.443a1.124,1.124,0,0,1,.326,0l1.99.313a2.735,2.735,0,0,0,.829,0l2.648,5.908a.8.8,0,1,0,1.457-.653l-2.666-5.947a2.747,2.747,0,0,0,.353-.4L90.8,34.418a1.121,1.121,0,0,1,.269-.262Zm2.43-25.635L97.5,21.518a2.724,2.724,0,0,0-.365,1.839l.313,1.99A1.118,1.118,0,0,1,97,26.429l-1.629,1.185a2.723,2.723,0,0,0-1.044,1.56l-.474,1.96a1.119,1.119,0,0,1-.827.827l-1.96.474a2.723,2.723,0,0,0-1.56,1.044l-1.184,1.628a1.118,1.118,0,0,1-1.083.449l-1.99-.313a2.723,2.723,0,0,0-1.839.365l-1.723,1.051a1.119,1.119,0,0,1-1.169,0L78.8,35.607a2.722,2.722,0,0,0-1.839-.365l-1.99.313a1.118,1.118,0,0,1-1.083-.449L72.7,33.478a2.723,2.723,0,0,0-1.56-1.044l-1.96-.474a1.119,1.119,0,0,1-.827-.827l-.474-1.96a2.723,2.723,0,0,0-1.044-1.56l-1.628-1.184a1.118,1.118,0,0,1-.449-1.083l.313-1.99a2.723,2.723,0,0,0-.365-1.839l-1.051-1.723a1.119,1.119,0,0,1,0-1.169L64.712,16.9a2.723,2.723,0,0,0,.365-1.839l-.313-1.99a1.118,1.118,0,0,1,.449-1.083l1.629-1.185a2.723,2.723,0,0,0,1.044-1.56l.474-1.96a1.119,1.119,0,0,1,.827-.827l1.96-.474a2.722,2.722,0,0,0,1.56-1.044L73.89,3.314a1.118,1.118,0,0,1,1.083-.449l1.99.313A2.722,2.722,0,0,0,78.8,2.813l1.723-1.051a1.119,1.119,0,0,1,1.169,0l1.723,1.051a2.722,2.722,0,0,0,1.839.365l1.99-.313a1.119,1.119,0,0,1,1.083.449l1.185,1.629a2.723,2.723,0,0,0,1.56,1.044l1.96.474a1.119,1.119,0,0,1,.827.827l.474,1.96a2.723,2.723,0,0,0,1.044,1.56L97,11.991a1.118,1.118,0,0,1,.449,1.083l-.313,1.99a2.723,2.723,0,0,0,.365,1.839l1.051,1.723A1.118,1.118,0,0,1,98.556,19.795Z" transform="translate(-61.898 0)" fill="#fff"/>
        </g>
      </g>
      <g id="Group_3538" data-name="Group 3538" transform="translate(71.691 9.936)">
        <g id="Group_3537" data-name="Group 3537" transform="translate(0)">
          <path id="Path_563" data-name="Path 563" d="M179.611,107.187a1.429,1.429,0,0,0-1.2-.987l-4.805-.57-2.027-4.394a1.443,1.443,0,0,0-2.621,0l-2.027,4.394-4.805.57a1.443,1.443,0,0,0-.81,2.492l3.553,3.285-.943,4.746a1.448,1.448,0,0,0,1.414,1.727,1.444,1.444,0,0,0,.707-.186l4.222-2.363,4.222,2.363a1.443,1.443,0,0,0,2.12-1.54l-.943-4.746,3.553-3.285A1.429,1.429,0,0,0,179.611,107.187Zm-5.358,3.922a.8.8,0,0,0-.241.742l.965,4.857-4.321-2.419a.8.8,0,0,0-.78,0l-4.321,2.419.965-4.857a.8.8,0,0,0-.241-.742l-3.635-3.362,4.917-.583a.8.8,0,0,0,.631-.458l2.074-4.5,2.074,4.5a.8.8,0,0,0,.631.458l4.917.583Z" transform="translate(-160.849 -100.398)" fill="#fff"/>
        </g>
      </g>
    </g>
  </g>
</svg>
